^C:\SOFTPHONEPC\DEVECK.TAM-MASTER\PJPROJECT_1.0\PJLIB-UTIL\SRC\PJLIB-UTIL-TEST\ENCRYPTION.C
/c /I../INCLUDE /I../../PJLIB/INCLUDE /Zi /nologo /W3 /WX- /diagnostics:column /O2 /Ob1 /Oy- /D NDEBUG /D WIN32 /D _CONSOLE /D PJ_WIN32=1 /D PJ_M_I386=1 /D _VC80_UPGRADE=0x0600 /D _MBCS /GF /Gm- /EHsc /MD /GS /Gy /fp:precise /Zc:wchar_t /Zc:forScope /Zc:inline /Fo"./OUTPUT/PJLIB-UTIL-TEST-I386-WIN32-VC8-RELEASE/" /Fd"./OUTPUT/PJLIB-UTIL-TEST-I386-WIN32-VC8-RELEASE/VC142.PDB" /FR"./OUTPUT/PJLIB-UTIL-TEST-I386-WIN32-VC8-RELEASE\\" /external:W3 /Gd /TC /analyze- /FC C:\SOFTPHONEPC\DEVECK.TAM-MASTER\PJPROJECT_1.0\PJLIB-UTIL\SRC\PJLIB-UTIL-TEST\ENCRYPTION.C
^C:\SOFTPHONEPC\DEVECK.TAM-MASTER\PJPROJECT_1.0\PJLIB-UTIL\SRC\PJLIB-UTIL-TEST\MAIN.C
/c /I../INCLUDE /I../../PJLIB/INCLUDE /Zi /nologo /W3 /WX- /diagnostics:column /O2 /Ob1 /Oy- /D NDEBUG /D WIN32 /D _CONSOLE /D PJ_WIN32=1 /D PJ_M_I386=1 /D _VC80_UPGRADE=0x0600 /D _MBCS /GF /Gm- /EHsc /MD /GS /Gy /fp:precise /Zc:wchar_t /Zc:forScope /Zc:inline /Fo"./OUTPUT/PJLIB-UTIL-TEST-I386-WIN32-VC8-RELEASE/" /Fd"./OUTPUT/PJLIB-UTIL-TEST-I386-WIN32-VC8-RELEASE/VC142.PDB" /FR"./OUTPUT/PJLIB-UTIL-TEST-I386-WIN32-VC8-RELEASE\\" /external:W3 /Gd /TC /analyze- /FC C:\SOFTPHONEPC\DEVECK.TAM-MASTER\PJPROJECT_1.0\PJLIB-UTIL\SRC\PJLIB-UTIL-TEST\MAIN.C
^C:\SOFTPHONEPC\DEVECK.TAM-MASTER\PJPROJECT_1.0\PJLIB-UTIL\SRC\PJLIB-UTIL-TEST\RESOLVER_TEST.C
/c /I../INCLUDE /I../../PJLIB/INCLUDE /Zi /nologo /W3 /WX- /diagnostics:column /O2 /Ob1 /Oy- /D NDEBUG /D WIN32 /D _CONSOLE /D PJ_WIN32=1 /D PJ_M_I386=1 /D _VC80_UPGRADE=0x0600 /D _MBCS /GF /Gm- /EHsc /MD /GS /Gy /fp:precise /Zc:wchar_t /Zc:forScope /Zc:inline /Fo"./OUTPUT/PJLIB-UTIL-TEST-I386-WIN32-VC8-RELEASE/" /Fd"./OUTPUT/PJLIB-UTIL-TEST-I386-WIN32-VC8-RELEASE/VC142.PDB" /FR"./OUTPUT/PJLIB-UTIL-TEST-I386-WIN32-VC8-RELEASE\\" /external:W3 /Gd /TC /analyze- /FC C:\SOFTPHONEPC\DEVECK.TAM-MASTER\PJPROJECT_1.0\PJLIB-UTIL\SRC\PJLIB-UTIL-TEST\RESOLVER_TEST.C
^C:\SOFTPHONEPC\DEVECK.TAM-MASTER\PJPROJECT_1.0\PJLIB-UTIL\SRC\PJLIB-UTIL-TEST\STUN.C
/c /I../INCLUDE /I../../PJLIB/INCLUDE /Zi /nologo /W3 /WX- /diagnostics:column /O2 /Ob1 /Oy- /D NDEBUG /D WIN32 /D _CONSOLE /D PJ_WIN32=1 /D PJ_M_I386=1 /D _VC80_UPGRADE=0x0600 /D _MBCS /GF /Gm- /EHsc /MD /GS /Gy /fp:precise /Zc:wchar_t /Zc:forScope /Zc:inline /Fo"./OUTPUT/PJLIB-UTIL-TEST-I386-WIN32-VC8-RELEASE/" /Fd"./OUTPUT/PJLIB-UTIL-TEST-I386-WIN32-VC8-RELEASE/VC142.PDB" /FR"./OUTPUT/PJLIB-UTIL-TEST-I386-WIN32-VC8-RELEASE\\" /external:W3 /Gd /TC /analyze- /FC C:\SOFTPHONEPC\DEVECK.TAM-MASTER\PJPROJECT_1.0\PJLIB-UTIL\SRC\PJLIB-UTIL-TEST\STUN.C
^C:\SOFTPHONEPC\DEVECK.TAM-MASTER\PJPROJECT_1.0\PJLIB-UTIL\SRC\PJLIB-UTIL-TEST\TEST.C
/c /I../INCLUDE /I../../PJLIB/INCLUDE /Zi /nologo /W3 /WX- /diagnostics:column /O2 /Ob1 /Oy- /D NDEBUG /D WIN32 /D _CONSOLE /D PJ_WIN32=1 /D PJ_M_I386=1 /D _VC80_UPGRADE=0x0600 /D _MBCS /GF /Gm- /EHsc /MD /GS /Gy /fp:precise /Zc:wchar_t /Zc:forScope /Zc:inline /Fo"./OUTPUT/PJLIB-UTIL-TEST-I386-WIN32-VC8-RELEASE/" /Fd"./OUTPUT/PJLIB-UTIL-TEST-I386-WIN32-VC8-RELEASE/VC142.PDB" /FR"./OUTPUT/PJLIB-UTIL-TEST-I386-WIN32-VC8-RELEASE\\" /external:W3 /Gd /TC /analyze- /FC C:\SOFTPHONEPC\DEVECK.TAM-MASTER\PJPROJECT_1.0\PJLIB-UTIL\SRC\PJLIB-UTIL-TEST\TEST.C
^C:\SOFTPHONEPC\DEVECK.TAM-MASTER\PJPROJECT_1.0\PJLIB-UTIL\SRC\PJLIB-UTIL-TEST\XML.C
/c /I../INCLUDE /I../../PJLIB/INCLUDE /Zi /nologo /W3 /WX- /diagnostics:column /O2 /Ob1 /Oy- /D NDEBUG /D WIN32 /D _CONSOLE /D PJ_WIN32=1 /D PJ_M_I386=1 /D _VC80_UPGRADE=0x0600 /D _MBCS /GF /Gm- /EHsc /MD /GS /Gy /fp:precise /Zc:wchar_t /Zc:forScope /Zc:inline /Fo"./OUTPUT/PJLIB-UTIL-TEST-I386-WIN32-VC8-RELEASE/" /Fd"./OUTPUT/PJLIB-UTIL-TEST-I386-WIN32-VC8-RELEASE/VC142.PDB" /FR"./OUTPUT/PJLIB-UTIL-TEST-I386-WIN32-VC8-RELEASE\\" /external:W3 /Gd /TC /analyze- /FC C:\SOFTPHONEPC\DEVECK.TAM-MASTER\PJPROJECT_1.0\PJLIB-UTIL\SRC\PJLIB-UTIL-TEST\XML.C
