^C:\SOFTPHONEPC\DEVECK.TAM-MASTER\PJPROJECT_1.0\PJLIB\BUILD\OUTPUT\PJLIB-TEST-I386-WIN32-VC8-RELEASE\ACTIVESOCK.SBR|C:\SOFTPHONEPC\DEVECK.TAM-MASTER\PJPROJECT_1.0\PJLIB\BUILD\OUTPUT\PJLIB-TEST-I386-WIN32-VC8-RELEASE\ATOMIC.SBR|C:\SOFTPHONEPC\DEVECK.TAM-MASTER\PJPROJECT_1.0\PJLIB\BUILD\OUTPUT\PJLIB-TEST-I386-WIN32-VC8-RELEASE\ECHO_CLT.SBR|C:\SOFTPHONEPC\DEVECK.TAM-MASTER\PJPROJECT_1.0\PJLIB\BUILD\OUTPUT\PJLIB-TEST-I386-WIN32-VC8-RELEASE\ERRNO.SBR|C:\SOFTPHONEPC\DEVECK.TAM-MASTER\PJPROJECT_1.0\PJLIB\BUILD\OUTPUT\PJLIB-TEST-I386-WIN32-VC8-RELEASE\EXCEPTION.SBR|C:\SOFTPHONEPC\DEVECK.TAM-MASTER\PJPROJECT_1.0\PJLIB\BUILD\OUTPUT\PJLIB-TEST-I386-WIN32-VC8-RELEASE\FIFOBUF.SBR|C:\SOFTPHONEPC\DEVECK.TAM-MASTER\PJPROJECT_1.0\PJLIB\BUILD\OUTPUT\PJLIB-TEST-I386-WIN32-VC8-RELEASE\FILE.SBR|C:\SOFTPHONEPC\DEVECK.TAM-MASTER\PJPROJECT_1.0\PJLIB\BUILD\OUTPUT\PJLIB-TEST-I386-WIN32-VC8-RELEASE\HASH_TEST.SBR|C:\SOFTPHONEPC\DEVECK.TAM-MASTER\PJPROJECT_1.0\PJLIB\BUILD\OUTPUT\PJLIB-TEST-I386-WIN32-VC8-RELEASE\IOQ_PERF.SBR|C:\SOFTPHONEPC\DEVECK.TAM-MASTER\PJPROJECT_1.0\PJLIB\BUILD\OUTPUT\PJLIB-TEST-I386-WIN32-VC8-RELEASE\IOQ_TCP.SBR|C:\SOFTPHONEPC\DEVECK.TAM-MASTER\PJPROJECT_1.0\PJLIB\BUILD\OUTPUT\PJLIB-TEST-I386-WIN32-VC8-RELEASE\IOQ_UDP.SBR|C:\SOFTPHONEPC\DEVECK.TAM-MASTER\PJPROJECT_1.0\PJLIB\BUILD\OUTPUT\PJLIB-TEST-I386-WIN32-VC8-RELEASE\IOQ_UNREG.SBR|C:\SOFTPHONEPC\DEVECK.TAM-MASTER\PJPROJECT_1.0\PJLIB\BUILD\OUTPUT\PJLIB-TEST-I386-WIN32-VC8-RELEASE\LIST.SBR|C:\SOFTPHONEPC\DEVECK.TAM-MASTER\PJPROJECT_1.0\PJLIB\BUILD\OUTPUT\PJLIB-TEST-I386-WIN32-VC8-RELEASE\MAIN.SBR|C:\SOFTPHONEPC\DEVECK.TAM-MASTER\PJPROJECT_1.0\PJLIB\BUILD\OUTPUT\PJLIB-TEST-I386-WIN32-VC8-RELEASE\MUTEX.SBR|C:\SOFTPHONEPC\DEVECK.TAM-MASTER\PJPROJECT_1.0\PJLIB\BUILD\OUTPUT\PJLIB-TEST-I386-WIN32-VC8-RELEASE\OS.SBR|C:\SOFTPHONEPC\DEVECK.TAM-MASTER\PJPROJECT_1.0\PJLIB\BUILD\OUTPUT\PJLIB-TEST-I386-WIN32-VC8-RELEASE\POOL.SBR|C:\SOFTPHONEPC\DEVECK.TAM-MASTER\PJPROJECT_1.0\PJLIB\BUILD\OUTPUT\PJLIB-TEST-I386-WIN32-VC8-RELEASE\POOL_PERF.SBR|C:\SOFTPHONEPC\DEVECK.TAM-MASTER\PJPROJECT_1.0\PJLIB\BUILD\OUTPUT\PJLIB-TEST-I386-WIN32-VC8-RELEASE\RAND.SBR|C:\SOFTPHONEPC\DEVECK.TAM-MASTER\PJPROJECT_1.0\PJLIB\BUILD\OUTPUT\PJLIB-TEST-I386-WIN32-VC8-RELEASE\RBTREE.SBR|C:\SOFTPHONEPC\DEVECK.TAM-MASTER\PJPROJECT_1.0\PJLIB\BUILD\OUTPUT\PJLIB-TEST-I386-WIN32-VC8-RELEASE\SELECT.SBR|C:\SOFTPHONEPC\DEVECK.TAM-MASTER\PJPROJECT_1.0\PJLIB\BUILD\OUTPUT\PJLIB-TEST-I386-WIN32-VC8-RELEASE\SLEEP.SBR|C:\SOFTPHONEPC\DEVECK.TAM-MASTER\PJPROJECT_1.0\PJLIB\BUILD\OUTPUT\PJLIB-TEST-I386-WIN32-VC8-RELEASE\SOCK.SBR|C:\SOFTPHONEPC\DEVECK.TAM-MASTER\PJPROJECT_1.0\PJLIB\BUILD\OUTPUT\PJLIB-TEST-I386-WIN32-VC8-RELEASE\SOCK_PERF.SBR|C:\SOFTPHONEPC\DEVECK.TAM-MASTER\PJPROJECT_1.0\PJLIB\BUILD\OUTPUT\PJLIB-TEST-I386-WIN32-VC8-RELEASE\STRING.SBR|C:\SOFTPHONEPC\DEVECK.TAM-MASTER\PJPROJECT_1.0\PJLIB\BUILD\OUTPUT\PJLIB-TEST-I386-WIN32-VC8-RELEASE\TEST.SBR|C:\SOFTPHONEPC\DEVECK.TAM-MASTER\PJPROJECT_1.0\PJLIB\BUILD\OUTPUT\PJLIB-TEST-I386-WIN32-VC8-RELEASE\THREAD.SBR|C:\SOFTPHONEPC\DEVECK.TAM-MASTER\PJPROJECT_1.0\PJLIB\BUILD\OUTPUT\PJLIB-TEST-I386-WIN32-VC8-RELEASE\TIMER.SBR|C:\SOFTPHONEPC\DEVECK.TAM-MASTER\PJPROJECT_1.0\PJLIB\BUILD\OUTPUT\PJLIB-TEST-I386-WIN32-VC8-RELEASE\TIMESTAMP.SBR|C:\SOFTPHONEPC\DEVECK.TAM-MASTER\PJPROJECT_1.0\PJLIB\BUILD\OUTPUT\PJLIB-TEST-I386-WIN32-VC8-RELEASE\UDP_ECHO_SRV_IOQUEUE.SBR|C:\SOFTPHONEPC\DEVECK.TAM-MASTER\PJPROJECT_1.0\PJLIB\BUILD\OUTPUT\PJLIB-TEST-I386-WIN32-VC8-RELEASE\UDP_ECHO_SRV_SYNC.SBR|C:\SOFTPHONEPC\DEVECK.TAM-MASTER\PJPROJECT_1.0\PJLIB\BUILD\OUTPUT\PJLIB-TEST-I386-WIN32-VC8-RELEASE\UTIL.SBR
C:\WINDOWS\SYSTEM32\TZRES.DLL
C:\SOFTPHONEPC\DEVECK.TAM-MASTER\PJPROJECT_1.0\PJLIB\BUILD\OUTPUT\PJLIB-TEST-I386-WIN32-VC8-RELEASE\ACTIVESOCK.SBR
C:\SOFTPHONEPC\DEVECK.TAM-MASTER\PJPROJECT_1.0\PJLIB\BUILD\OUTPUT\PJLIB-TEST-I386-WIN32-VC8-RELEASE\ATOMIC.SBR
C:\SOFTPHONEPC\DEVECK.TAM-MASTER\PJPROJECT_1.0\PJLIB\BUILD\OUTPUT\PJLIB-TEST-I386-WIN32-VC8-RELEASE\ECHO_CLT.SBR
C:\SOFTPHONEPC\DEVECK.TAM-MASTER\PJPROJECT_1.0\PJLIB\BUILD\OUTPUT\PJLIB-TEST-I386-WIN32-VC8-RELEASE\ERRNO.SBR
C:\SOFTPHONEPC\DEVECK.TAM-MASTER\PJPROJECT_1.0\PJLIB\BUILD\OUTPUT\PJLIB-TEST-I386-WIN32-VC8-RELEASE\EXCEPTION.SBR
C:\SOFTPHONEPC\DEVECK.TAM-MASTER\PJPROJECT_1.0\PJLIB\BUILD\OUTPUT\PJLIB-TEST-I386-WIN32-VC8-RELEASE\FIFOBUF.SBR
C:\SOFTPHONEPC\DEVECK.TAM-MASTER\PJPROJECT_1.0\PJLIB\BUILD\OUTPUT\PJLIB-TEST-I386-WIN32-VC8-RELEASE\FILE.SBR
C:\SOFTPHONEPC\DEVECK.TAM-MASTER\PJPROJECT_1.0\PJLIB\BUILD\OUTPUT\PJLIB-TEST-I386-WIN32-VC8-RELEASE\HASH_TEST.SBR
C:\SOFTPHONEPC\DEVECK.TAM-MASTER\PJPROJECT_1.0\PJLIB\BUILD\OUTPUT\PJLIB-TEST-I386-WIN32-VC8-RELEASE\IOQ_PERF.SBR
C:\SOFTPHONEPC\DEVECK.TAM-MASTER\PJPROJECT_1.0\PJLIB\BUILD\OUTPUT\PJLIB-TEST-I386-WIN32-VC8-RELEASE\IOQ_TCP.SBR
C:\SOFTPHONEPC\DEVECK.TAM-MASTER\PJPROJECT_1.0\PJLIB\BUILD\OUTPUT\PJLIB-TEST-I386-WIN32-VC8-RELEASE\IOQ_UDP.SBR
C:\SOFTPHONEPC\DEVECK.TAM-MASTER\PJPROJECT_1.0\PJLIB\BUILD\OUTPUT\PJLIB-TEST-I386-WIN32-VC8-RELEASE\IOQ_UNREG.SBR
C:\SOFTPHONEPC\DEVECK.TAM-MASTER\PJPROJECT_1.0\PJLIB\BUILD\OUTPUT\PJLIB-TEST-I386-WIN32-VC8-RELEASE\LIST.SBR
C:\SOFTPHONEPC\DEVECK.TAM-MASTER\PJPROJECT_1.0\PJLIB\BUILD\OUTPUT\PJLIB-TEST-I386-WIN32-VC8-RELEASE\MAIN.SBR
C:\SOFTPHONEPC\DEVECK.TAM-MASTER\PJPROJECT_1.0\PJLIB\BUILD\OUTPUT\PJLIB-TEST-I386-WIN32-VC8-RELEASE\MUTEX.SBR
C:\SOFTPHONEPC\DEVECK.TAM-MASTER\PJPROJECT_1.0\PJLIB\BUILD\OUTPUT\PJLIB-TEST-I386-WIN32-VC8-RELEASE\OS.SBR
C:\SOFTPHONEPC\DEVECK.TAM-MASTER\PJPROJECT_1.0\PJLIB\BUILD\OUTPUT\PJLIB-TEST-I386-WIN32-VC8-RELEASE\POOL.SBR
C:\SOFTPHONEPC\DEVECK.TAM-MASTER\PJPROJECT_1.0\PJLIB\BUILD\OUTPUT\PJLIB-TEST-I386-WIN32-VC8-RELEASE\POOL_PERF.SBR
C:\SOFTPHONEPC\DEVECK.TAM-MASTER\PJPROJECT_1.0\PJLIB\BUILD\OUTPUT\PJLIB-TEST-I386-WIN32-VC8-RELEASE\RAND.SBR
C:\SOFTPHONEPC\DEVECK.TAM-MASTER\PJPROJECT_1.0\PJLIB\BUILD\OUTPUT\PJLIB-TEST-I386-WIN32-VC8-RELEASE\RBTREE.SBR
C:\SOFTPHONEPC\DEVECK.TAM-MASTER\PJPROJECT_1.0\PJLIB\BUILD\OUTPUT\PJLIB-TEST-I386-WIN32-VC8-RELEASE\SELECT.SBR
C:\SOFTPHONEPC\DEVECK.TAM-MASTER\PJPROJECT_1.0\PJLIB\BUILD\OUTPUT\PJLIB-TEST-I386-WIN32-VC8-RELEASE\SLEEP.SBR
C:\SOFTPHONEPC\DEVECK.TAM-MASTER\PJPROJECT_1.0\PJLIB\BUILD\OUTPUT\PJLIB-TEST-I386-WIN32-VC8-RELEASE\SOCK.SBR
C:\SOFTPHONEPC\DEVECK.TAM-MASTER\PJPROJECT_1.0\PJLIB\BUILD\OUTPUT\PJLIB-TEST-I386-WIN32-VC8-RELEASE\SOCK_PERF.SBR
C:\SOFTPHONEPC\DEVECK.TAM-MASTER\PJPROJECT_1.0\PJLIB\BUILD\OUTPUT\PJLIB-TEST-I386-WIN32-VC8-RELEASE\STRING.SBR
C:\SOFTPHONEPC\DEVECK.TAM-MASTER\PJPROJECT_1.0\PJLIB\BUILD\OUTPUT\PJLIB-TEST-I386-WIN32-VC8-RELEASE\TEST.SBR
C:\SOFTPHONEPC\DEVECK.TAM-MASTER\PJPROJECT_1.0\PJLIB\BUILD\OUTPUT\PJLIB-TEST-I386-WIN32-VC8-RELEASE\THREAD.SBR
C:\SOFTPHONEPC\DEVECK.TAM-MASTER\PJPROJECT_1.0\PJLIB\BUILD\OUTPUT\PJLIB-TEST-I386-WIN32-VC8-RELEASE\TIMER.SBR
C:\SOFTPHONEPC\DEVECK.TAM-MASTER\PJPROJECT_1.0\PJLIB\BUILD\OUTPUT\PJLIB-TEST-I386-WIN32-VC8-RELEASE\TIMESTAMP.SBR
C:\SOFTPHONEPC\DEVECK.TAM-MASTER\PJPROJECT_1.0\PJLIB\BUILD\OUTPUT\PJLIB-TEST-I386-WIN32-VC8-RELEASE\UDP_ECHO_SRV_IOQUEUE.SBR
C:\SOFTPHONEPC\DEVECK.TAM-MASTER\PJPROJECT_1.0\PJLIB\BUILD\OUTPUT\PJLIB-TEST-I386-WIN32-VC8-RELEASE\UDP_ECHO_SRV_SYNC.SBR
C:\SOFTPHONEPC\DEVECK.TAM-MASTER\PJPROJECT_1.0\PJLIB\BUILD\OUTPUT\PJLIB-TEST-I386-WIN32-VC8-RELEASE\UTIL.SBR
